<?xml version="1.0" encoding="UTF-8"?>
<!--
SPDX-License-Identifier: CC-BY-SA-4.0
SPDX-FileCopyrightText: Jakub Steiner <jimmac@gmail.com>
-->

<svg height="128px" viewBox="0 0 128 128" width="128px" xmlns="http://www.w3.org/2000/svg" xmlns:xlink="http://www.w3.org/1999/xlink">
    <linearGradient id="a" gradientTransform="matrix(0.232143 0 0 0.328947 -8.566925 263.826965)" gradientUnits="userSpaceOnUse" x1="88.595886" x2="536.595886" y1="-449.394012" y2="-449.394012">
        <stop offset="0" stop-color="#77767b"/>
        <stop offset="0.0384615" stop-color="#c0bfbc"/>
        <stop offset="0.0768555" stop-color="#9a9996"/>
        <stop offset="0.923077" stop-color="#9a9996"/>
        <stop offset="0.961538" stop-color="#c0bfbc"/>
        <stop offset="1" stop-color="#77767b"/>
    </linearGradient>
    <path d="m 20 16 h 88 c 4.417969 0 8 3.582031 8 8 v 84 c 0 4.417969 -3.582031 8 -8 8 h -88 c -4.417969 0 -8 -3.582031 -8 -8 v -84 c 0 -4.417969 3.582031 -8 8 -8 z m 0 0" fill="url(#a)"/>
    <path d="m 20 12 h 88 c 4.417969 0 8 3.582031 8 8 v 84 c 0 4.417969 -3.582031 8 -8 8 h -88 c -4.417969 0 -8 -3.582031 -8 -8 v -84 c 0 -4.417969 3.582031 -8 8 -8 z m 0 0" fill="#deddda"/>
    <path d="m 104 80 c 0 11.046875 -8.953125 20 -20 20 s -20 -8.953125 -20 -20 s 8.953125 -20 20 -20 s 20 8.953125 20 20 z m 0 0" fill="#3584e4"/>
    <path d="m 43.851562 47.941406 l 7.027344 -13.042968 v 15.101562 h 4.949219 v -21.914062 h -6.628906 l -5.285157 10.082031 l -5.285156 -10.082031 h -6.628906 v 21.914062 h 4.828125 v -15.164062 z m 0 0"/>
    <path d="m 80.988281 32.359375 l 5.371094 5.371094 l 5.371094 -5.371094 l 2.269531 2.269531 l -5.371094 5.371094 l 5.371094 5.371094 l -2.269531 2.269531 l -5.371094 -5.371094 l -5.371094 5.371094 l -2.269531 -2.269531 l 5.375 -5.371094 l -5.375 -5.371094 z m 0 0"/>
    <path d="m 40.082031 90.8125 h 3.867188 v -14.8125 h -3.867188 z m -5.488281 -5.550781 h 14.8125 v -3.773438 h -14.8125 z m 0 0"/>
    <path d="m 76 92 h 5.40625 v -7.886719 h 6.191406 c 4.273438 0 7.480469 -2.988281 7.480469 -6.980469 c 0 -4.117187 -3.144531 -7.132812 -7.480469 -7.132812 h -11.597656 z m 10.96875 -17.378906 c 1.570312 0 2.640625 1.035156 2.640625 2.542968 c 0 1.480469 -1.070313 2.484376 -2.640625 2.484376 h -5.5625 v -5.027344 z m 0 0" fill="#ffffff"/>
    <g fill="#1a5fb4">
        <path d="m 60 56 v 12 h 4 v -8 h 8 v -4 z m 0 0"/>
        <path d="m 108 56 v 12 h -4 v -8 h -8 v -4 z m 0 0"/>
        <path d="m 60 104 v -12 h 4 v 8 h 8 v 4 z m 0 0"/>
        <path d="m 108 104 v -12 h -4 v 8 h -8 v 4 z m 0 0"/>
    </g>
</svg>
